<svg xmlns="http://www.w3.org/2000/svg" xmlns:xlink="http://www.w3.org/1999/xlink" width="2229.15" height="1201.353" viewBox="0 0 2229.15 1201.353">
  <defs>
    <style>
      .cls-1 {
        fill: url(#linear-gradient);
      }
    </style>
    <linearGradient id="linear-gradient" x1="0.5" x2="0.5" y2="1" gradientUnits="objectBoundingBox">
      <stop offset="0" stop-color="#181863"/>
      <stop offset="1" stop-color="#181863"/>
    </linearGradient>
  </defs>
  <path id="Path_629" data-name="Path 629" class="cls-1" d="M5075.518,1550.38c-164.084,132.083-80.857,308.052-301.142,367.325-231.384,62.261-449.416-119.357-586.5,38.695-116.345,134.138-184.421,176.752-428.517,214.49-114.334,17.676-381.761,295.269-709.838,411.92V1381.457h2229.15C5263.173,1471.792,5168.875,1475.232,5075.518,1550.38Z" transform="translate(-3049.521 -1381.457)"/>
</svg>
